"","plot","shrub_density","shrub_cover"
"1","F00_0_XX8",0.890887106927823,23.2187183769721
"2","F00_1_004",0.01,0
"3","F00_3_019",0.01,0
"4","F01_0_037",1.78900402017334,35.9767496294325
"5","F01_1_XX9",0.01,0
"6","F01_2_X10",0.01,0
"7","F02_0_097",0.308746650506049,19.6307132512955
"8","F02_1_XX6",0.01,0
"9","F02_2_XX7",0.01,0
"10","F02_3_XX5",0.01,0
"11","F03_0_116",1.00013517219319,20.5380000363884
"12","F03_3_111",0.01,0
"13","F04_0_139",1.49908893970225,38.4146279357472
"14","F04_1_120",0.0203968026588482,1.35419490489588
"15","F04_2_125",0.01,0
"16","F04_3_134",0.01,0
"17","F05_1_XX1",0.01,0
"18","F05_1_ZZ1",0.254764610339399,15.3664323948082
"19","F05_2_149",0.144900610060713,6.18923566740548
"20","F05_3_154",0.0201044054747378,0.312538856199411
"21","F06_0_XX1",0.674953952556061,18.3921330678005
"22","F06_1_160",0.0493237023263268,2.2704150104717
"23","F06_2_165",0.01,0
"24","F06_3_173",0.01,0
"25","F10_0_XX4",0.154709570415499,11.4780950218849
"26","F10_1_XX3",0.0867312642723812,1.19111987595794
"27","F10_2_XX2",0.488986022570404,7.06950074198463
"28","F10_3_051",0.01,0
