year,AFGC,PFGC,SHR,BG,TREE,annualTemp,annualPrecip
1984,2,14,38,11,1,47.01,9.98
1985,7,9,30,17,1,46.53,7.18
1986,11,13,26,18,0,50.07,6.53
1987,4,9,29,29,0,49.21,10.35
1988,3,16,26,28,0,49.01,7.54
1989,3,19,24,30,0,47.87,7.13
1990,1,6,28,36,1,48.49,8.03
1991,1,7,27,37,0,48.43,8.66
1992,4,12,22,34,0,49.93,6.62
1993,2,10,31,32,0,46.11,8.02
1994,0,14,19,48,0,49.63,8.62
1995,36,5,10,36,0,49.96,11.72
1996,4,16,27,30,0,49.84,12.16
1997,2,11,32,28,0,49.23,8.59
1998,4,12,33,24,0,48.88,15.63
1999,7,20,26,19,0,49.11,6.6
2000,6,17,28,20,0,49.65,10.06
2001,19,12,20,15,0,49.78,7.06
2002,21,6,18,23,0,49.05,6.67
2003,6,7,24,29,0,51.09,9.74
2004,1,5,34,34,0,49.17,9.27
2005,39,7,18,18,0,48.27,12.49
2006,33,25,11,9,0,48.89,9.23
2007,28,9,20,13,0,49.39,6.49
2008,7,3,24,29,0,48.54,6.44
2009,5,10,27,30,0,48.69,9.88
2010,3,8,28,35,0,49.53,10.07
2011,56,0,14,16,0,46.72,7.7
2012,19,10,10,27,0,51.42,7.9
2013,4,11,19,35,0,46.8,6.84
2014,8,9,20,35,0,52.68,12.46
2015,2,5,28,43,0,53.07,13.13
2016,8,14,11,43,0,51.47,10.99
2017,29,21,0,34,0,50.68,11.73
2018,68,10,0,8,0,50.23,9.8
2019,49,21,4,6,1,49.37,13.13