year,AFGC,PFGC,SHR,BG,TREE,annualTemp,annualPrecip
1984,31,26,6,11,0,47.08,9.71
1985,26,16,14,14,2,46.95,6.61
1986,23,22,13,11,1,50.34,6.87
1987,7,19,22,22,0,49.92,9.64
1988,5,16,21,25,0,49.98,7.42
1989,4,15,24,30,0,48.28,7.13
1990,4,9,27,32,0,48.29,6.93
1991,5,15,19,32,0,48.74,8.75
1992,5,14,18,30,1,50.4,6.51
1993,6,13,19,31,0,46.48,8.32
1994,4,17,22,33,0,49.63,7.75
1995,21,39,9,21,0,49.91,11.02
1996,25,28,6,16,1,49.94,12.2
1997,7,18,16,26,1,49.2,8.49
1998,11,11,24,24,1,48.83,16.02
1999,14,10,13,33,1,49.19,5.7
2000,18,11,4,36,0,49.86,10.24
2001,65,5,4,13,0,50,7.09
2002,26,6,3,33,0,49.65,6.14
2003,48,5,4,24,0,51.38,8.27
2004,19,13,4,39,0,49.8,8.8
2005,71,7,2,11,0,48.74,11.39
2006,67,13,1,3,0,49.26,8.41
2007,45,15,2,9,0,49.61,6.49
2008,24,14,5,22,0,48.41,6.77
2009,11,11,9,39,0,48.77,8.91
2010,20,21,7,34,0,49.08,9.52
2011,32,34,10,14,0,46.55,7.09
2012,28,16,10,15,0,51.71,7.69
2013,14,18,6,25,0,47.05,5.94
2014,13,15,10,31,0,51.9,10.73
2015,21,9,8,29,1,52.09,11.8
2016,65,15,3,5,0,50.77,9.62
2017,75,9,3,3,0,50.42,11.11
2018,68,7,2,4,0,50.29,8.94
2019,52,23,2,7,0,49.15,9.41