year,AFGC,PFGC,SHR,BG,TREE,annualTemp,annualPrecip
1984,9,24,26,12,2,48.62,14.11
1985,0,22,9,41,0,48.21,9.63
1986,13,27,2,45,0,51.69,9.12
1987,13,9,8,45,0,50.94,12.94
1988,56,11,3,12,1,50.72,10.47
1989,55,19,3,7,0,49.44,9.15
1990,44,13,3,11,0,49.76,10.21
1991,16,23,12,22,0,49.95,12.07
1992,34,11,10,18,0,51.54,8.44
1993,53,5,5,19,1,48.02,10.36
1994,36,30,1,13,0,51.08,11.04
1995,93,4,0,0,0,51.29,14.93
1996,77,4,2,2,0,51.2,15.14
1997,53,0,2,3,0,50.28,10.84
1998,70,9,4,0,0,49.61,20.01
1999,79,9,1,2,0,50.43,9.03
2000,83,2,1,0,0,51.07,12.56
2001,84,0,0,0,0,51.07,9.29
2002,41,6,3,9,0,50.6,8.41
2003,48,5,5,15,0,52.39,11.66
2004,18,8,2,31,0,50.84,11.26
2005,82,1,2,6,0,50.19,14.39
2006,99,2,0,0,0,50.41,11.66
2007,58,14,1,1,0,50.75,8.81
2008,44,0,0,10,0,49.58,8.61
2009,40,26,0,11,0,49.71,12.4
2010,87,0,0,1,0,50.36,11.36
2011,83,0,0,2,0,47.98,9.62
2012,69,1,2,0,0,52.96,9.82
2013,43,4,4,8,0,48.65,8.53
2014,48,3,1,19,0,53.37,12.55
2015,64,0,3,11,0,53.3,15.39
2016,85,6,2,2,0,52.04,13.6
2017,97,0,1,0,0,51.83,13.93
2018,70,4,2,3,0,51.39,13.34
2019,55,12,2,6,0,50.25,18.05