year,AFGC,PFGC,SHR,BG,TREE,annualTemp,annualPrecip
1984,12,30,13,8,3,46.79,10.09
1985,12,25,12,20,1,46.56,7.94
1986,10,28,20,13,1,49.46,6.68
1987,6,20,26,20,0,48.59,11.55
1988,1,18,30,23,0,47.63,7.46
1989,2,21,23,23,0,46.53,7.43
1990,3,15,19,22,1,46.63,8.97
1991,2,15,21,22,0,46.29,8.57
1992,4,16,22,27,0,48.51,7.76
1993,3,11,30,24,0,44.98,8.54
1994,4,18,22,23,1,48.43,9.98
1995,21,32,14,12,0,49.03,13.19
1996,9,34,13,16,0,48.94,12.01
1997,3,20,29,19,0,48.24,9.59
1998,7,25,25,16,0,48.06,14.34
1999,8,27,24,16,1,48.74,6.95
2000,9,25,20,17,1,49.12,10.57
2001,17,24,18,12,0,49.09,7.11
2002,9,15,23,20,0,47.87,6.54
2003,8,21,17,24,0,49.93,10.22
2004,13,12,22,25,0,47.78,11.09
2005,50,24,6,6,1,47.64,13.45
2006,45,17,5,10,0,48.28,9.26
2007,15,22,11,15,1,48.45,6.71
2008,4,10,28,19,0,47.49,7.15
2009,7,16,24,22,0,47.2,11.29
2010,8,19,24,23,0,47.84,9.32
2011,23,25,14,10,0,45.55,7.46
2012,28,14,16,12,0,50.73,6.95
2013,11,10,18,18,1,45.68,7.16
2014,19,16,14,18,0,51.12,11.06
2015,10,21,12,31,0,51.69,13.71
2016,48,15,8,14,1,50.02,12.85
2017,55,13,10,7,1,49.64,9.92
2018,53,9,10,6,0,49.36,9.52
2019,24,22,15,13,0,48.35,14.59