year,AFGC,PFGC,SHR,BG,TREE,annualTemp,annualPrecip
1984,8,18,16,12,5,48.07,10.45
1985,13,26,11,20,1,47.65,7.89
1986,43,20,7,10,1,50.74,6.96
1987,39,6,8,18,0,49.85,12.05
1988,9,26,15,18,1,48.93,8.33
1989,8,27,14,19,1,47.97,7.62
1990,5,11,17,24,1,48.24,9.26
1991,6,11,18,37,0,47.92,8.94
1992,16,12,13,36,0,50.07,7.72
1993,13,11,18,29,1,46.53,8.45
1994,5,22,19,28,1,50,10.02
1995,50,14,5,9,1,50.51,12.77
1996,38,18,11,9,0,50.48,12.46
1997,15,21,16,19,0,49.7,9.65
1998,45,13,13,9,0,49.43,15.14
1999,32,18,13,10,0,50.23,7.33
2000,17,24,12,12,1,50.7,10.87
2001,36,11,12,12,1,50.57,8.13
2002,22,8,18,17,0,49.36,6.9
2003,5,6,19,42,0,51.43,11.07
2004,3,3,27,41,0,49.4,11.63
2005,84,2,5,5,0,49.13,12.94
2006,44,15,5,10,1,49.86,9.61
2007,33,13,11,8,1,49.76,7.68
2008,20,11,18,19,0,48.89,7.19
2009,12,17,17,24,0,48.88,10.9
2010,27,23,11,15,1,50.32,9.02
2011,41,14,14,11,0,47.09,7.62
2012,35,6,16,9,0,52.29,7.44
2013,13,10,15,18,0,47.31,7.54
2014,18,16,16,24,0,53.26,11.05
2015,22,5,8,33,0,53.76,14.36
2016,62,4,4,17,0,52.25,13.87
2017,86,0,5,4,1,51.73,10.45
2018,53,10,4,6,1,51.11,10.31
2019,58,13,7,6,0,50.24,15.62