year,AFGC,PFGC,SHR,BG,TREE,annualTemp,annualPrecip
1984,39,26,6,7,0,46.85,14.91
1985,45,23,4,5,1,46.63,9.32
1986,67,9,6,1,1,50.04,11.2
1987,61,14,3,4,0,49.44,12.2
1988,24,31,6,10,1,49.66,9.61
1989,51,16,7,6,0,47.66,10.26
1990,42,8,6,13,0,47.81,9.23
1991,30,32,6,9,1,48.19,13.12
1992,45,10,3,20,0,49.78,8.2
1993,12,22,8,30,1,45.69,11.89
1994,22,34,7,14,0,48.67,10.18
1995,67,20,2,4,0,48.91,15.27
1996,52,15,1,8,0,49,14.79
1997,68,0,1,5,0,48.43,10.77
1998,52,16,4,7,0,48.29,20.78
1999,27,26,1,7,1,48.51,7.95
2000,43,14,3,5,1,49.22,12.73
2001,68,0,2,6,0,49.28,9.5
2002,39,13,6,12,0,48.71,8.88
2003,33,15,7,16,1,50.46,11.7
2004,24,21,9,19,0,49.18,11.37
2005,46,21,4,9,1,48.16,15.75
2006,52,16,2,7,1,48.74,11.66
2007,38,6,1,3,0,49.31,9.31
2008,42,16,5,10,0,47.93,10.27
2009,25,20,11,16,0,48.24,11.92
2010,28,26,13,11,0,48.28,13.55
2011,23,40,11,6,0,46.07,11.65
2012,27,25,3,12,0,51.12,9.47
2013,7,31,5,18,0,46.67,8.07
2014,18,27,8,13,0,51.34,13.01
2015,33,12,6,18,1,51.73,13.86
2016,73,3,4,5,1,50.35,11.59
2017,69,13,3,4,0,50.29,14.94
2018,52,14,6,7,0,49.97,11.43
2019,21,29,7,14,1,48.74,13.59